…
```r
stepsdf %>%
    mutate(datetime = date + hours((interval - (interval %% 100)) / 100) + minutes(interval %% 100))
```

```
## # A tibble: 17,568 × 4
##    steps date       interval datetime           
##    <dbl> <date>        <dbl> <dttm>             
##  1    NA 2012-10-01        0 2012-10-01 00:00:00
##  2    NA 2012-10-01        5 2012-10-01 00:05:00
##  3    NA 2012-10-01       10 2012-10-01 00:10:00
##  4    NA 2012-10-01       15 2012-10-01 00:15:00
##  5    NA 2012-10-01       20 2012-10-01 00:20:00
##  6    NA 2012-10-01       25 2012-10-01 00:25:00
##  7    NA 2012-10-01       30 2012-10-01 00:30:00
##  8    NA 2012-10-01       35 2012-10-01 00:35:00
##  9    NA 2012-10-01       40 2012-10-01 00:40:00
## 10    NA 2012-10-01       45 2012-10-01 00:45:00
## # … with 17,558 more rows
```
…
